Exercise1.01
…
                          )
bikesharing %>% slice_sample(n=200)

## # A tibble: 200 x 17
##    instant dteday     season yr    mnth     hr holiday weekday workingday
##      <dbl> <date>     <chr>  <chr> <chr> <dbl>   <dbl> <chr>        <dbl>
##  1   12704 2012-06-18 spring 2012  Jun      12       0 Monday           1
##  2   12142 2012-05-26 spring 2012  May       2       0 Saturd          0
##  3   14293 2012-08-23 summer 2012  Aug      17       0 Thursd          1
##  4   11999 2012-05-20 spring 2012  May       3       0 Sunday           0
##  5   14856 2012-09-16 summer 2012  Sep       4       0 Sunday           0
##  6   11332 2012-04-22 spring 2012  Apr       8       0 Sunday           0
##  7    8240 2011-12-14 fall   2011  Dec      23       0 Wednes          1
##  8    1875 2011-03-23 spring 2011  Mar      21       0 Wednes          1
##  9    8832 2012-01-08 winter 2012  Jan      19       0 Sunday           0
## 10   16054 2012-11-06 fall   2012  Nov      14       0 Tuesday          1
## #  with 190 more rows, and 8 more variables: weathersit <chr>, temp <dbl>,
## #   atemp <dbl>, hum <dbl>, windspeed <dbl>, casual <dbl>, registered <dbl>,
## #   cnt <dbl>
…
